<svg xmlns="http://www.w3.org/2000/svg" id="prefix__Componente_35_2" width="16.625" height="14.547" data-name="Componente 35 – 2" viewBox="0 0 16.625 14.547">
    <path id="prefix__Caminho_1669" d="M.594-11.727a.578.578 0 01-.427-.167A.578.578 0 010-12.32v-1.48a.578.578 0 01.167-.427.578.578 0 01.427-.173h15.437a.578.578 0 01.427.167.578.578 0 01.167.427v1.484a.578.578 0 01-.167.427.578.578 0 01-.427.167zm0 5.937a.578.578 0 01-.427-.167A.578.578 0 010-6.383v-1.484a.578.578 0 01.167-.427.578.578 0 01.427-.167h15.437a.578.578 0 01.427.167.578.578 0 01.167.427v1.484a.578.578 0 01-.167.427.578.578 0 01-.427.167zm0 5.937a.578.578 0 01-.427-.166A.578.578 0 010-.445V-1.93a.578.578 0 01.167-.427.578.578 0 01.427-.167h15.437a.578.578 0 01.427.167.578.578 0 01.167.427v1.485a.578.578 0 01-.167.427.578.578 0 01-.427.167z" data-name="Caminho 1669" transform="translate(0 14.398)" style="fill:#f3f8fe"/>
</svg>
