<svg xmlns="http://www.w3.org/2000/svg" width="16.414" height="16" viewBox="0 0 16.414 16">
    <defs>
        <style>
            .prefix__cls-1{fill:none;stroke:#fff;stroke-linecap:round;stroke-linejoin:round;stroke-miterlimit:10;stroke-width:2px}
        </style>
    </defs>
    <g id="prefix__Grupo_3367" data-name="Grupo 3367" transform="translate(-1.763 -2.813)">
        <path id="prefix__椭圆形" d="M5.895 11.789A5.895 5.895 0 1 0 0 5.895a5.878 5.878 0 0 0 5.895 5.894z" class="prefix__cls-1" transform="translate(4.282 6.023)"/>
        <path id="prefix__直线" d="M1.474 1.474L0 0z" class="prefix__cls-1" transform="translate(15.703 5.655)"/>
        <path id="prefix__直线-2" d="M0 1.474L1.474 0" class="prefix__cls-1" data-name="直线" transform="translate(3.177 5.655)"/>
        <path id="prefix__直线-3" d="M1 3.684V0" class="prefix__cls-1" data-name="直线" transform="translate(9.177 8.602)"/>
        <path id="prefix__直线-4" d="M0 1h3.684" class="prefix__cls-1" data-name="直线" transform="translate(8.335 2.813)"/>
    </g>
</svg>
